<svg width="22" height="25" viewBox="0 0 22 25" fill="none" xmlns="http://www.w3.org/2000/svg">
<path d="M10.9999 0.925639L11.6474 0.264688C11.2877 -0.0876939 10.7122 -0.0876939 10.3525 0.264688L10.9999 0.925639ZM0.925137 10.7948L0.277675 10.1339L-0.00010037 10.406V10.7948H0.925137ZM8.12143 23.9538V24.879C8.63243 24.879 9.04667 24.4648 9.04667 23.9538H8.12143ZM13.8785 23.9538H12.9532C12.9532 24.4648 13.3675 24.879 13.8785 24.879V23.9538ZM21.0748 10.7948H22V10.406L21.7222 10.1339L21.0748 10.7948ZM2.3644 24.879H8.12143V23.0285H2.3644V24.879ZM21.7222 10.1339L11.6474 0.264688L10.3525 1.58659L20.4273 11.4558L21.7222 10.1339ZM10.3525 0.264688L0.277675 10.1339L1.5726 11.4558L11.6474 1.58659L10.3525 0.264688ZM9.04667 23.9538V19.0192H7.19619V23.9538H9.04667ZM12.9532 19.0192V23.9538H14.8037V19.0192H12.9532ZM13.8785 24.879H19.6355V23.0285H13.8785V24.879ZM22 22.3089V10.7948H20.1495V22.3089H22ZM-0.00010037 10.7948V22.3089H1.85038V10.7948H-0.00010037ZM10.9999 16.6547C11.9665 16.6547 12.9532 17.5934 12.9532 19.0192H14.8037C14.8037 16.8112 13.2129 14.8042 10.9999 14.8042V16.6547ZM10.9999 14.8042C8.787 14.8042 7.19619 16.8112 7.19619 19.0192H9.04667C9.04667 17.5934 10.0334 16.6547 10.9999 16.6547V14.8042ZM19.6355 24.879C21.0536 24.879 22 23.6084 22 22.3089H20.1495C20.1495 22.8263 19.8072 23.0285 19.6355 23.0285V24.879ZM2.3644 23.0285C2.1927 23.0285 1.85038 22.8263 1.85038 22.3089H-0.00010037C-0.00010037 23.6084 0.946333 24.879 2.3644 24.879V23.0285Z" fill="#16162E" fill-opacity="0.4"/>
</svg>
