<svg width="50" height="37" viewBox="0 0 50 37" fill="none" xmlns="http://www.w3.org/2000/svg">
<path d="M48.5749 21.208L48.5649 21.1758C43.2882 4.94744 42.4014 3.62182 42.1137 3.1849C40.2795 0.43405 34.6674 0.351725 34.0338 0.351725C33.58 0.351725 33.212 0.719977 33.212 1.17417C33.212 1.62836 33.58 1.99661 34.0338 1.99661C35.5133 1.99661 39.6018 2.37892 40.747 4.0981C41.0957 4.62096 42.1952 7.12041 45.6328 17.5038C43.346 15.6637 40.4019 14.8501 37.4955 15.2549C34.5896 15.6597 31.9793 17.2471 30.2816 19.6422C28.8567 18.2937 26.9547 17.5672 24.9941 17.623C23.0343 17.568 21.1327 18.2949 19.7086 19.6438C18.0105 17.2491 15.4003 15.6617 12.4943 15.2569C9.58832 14.8521 6.64423 15.6657 4.35742 17.5054C7.79426 7.11961 8.89373 4.62015 9.24203 4.0997C10.3876 2.37892 14.4753 1.99661 15.9544 1.99661C16.4082 1.99661 16.7762 1.62836 16.7762 1.17417C16.7762 0.719977 16.4082 0.351725 15.9544 0.351725C15.3208 0.351725 9.7091 0.43405 7.87452 3.1849C7.5836 3.62182 6.70041 4.94744 1.42537 21.1726L1.41534 21.2047C-0.496286 25.1644 0.211145 29.8914 3.19736 33.1169C6.18398 36.3424 10.8399 37.4074 14.93 35.8011C19.0205 34.1948 21.7098 30.2448 21.7069 25.8474C21.7053 24.2046 21.3225 22.5842 20.5886 21.1144C21.7037 19.8655 23.3228 19.1872 24.9941 19.2679C26.6658 19.1872 28.2845 19.8655 29.4 21.1144C27.1698 25.5997 28.3503 31.0331 32.2402 34.1863C36.13 37.3396 41.6864 37.3665 45.6067 34.2514C49.5275 31.1367 50.761 25.7149 48.5749 21.208ZM11.0236 34.8943C6.0311 34.8943 1.98394 30.8439 1.98394 25.8474C1.98394 20.8509 6.0311 16.8006 11.0236 16.8006C16.0162 16.8006 20.0634 20.8509 20.0634 25.8474C20.0577 30.8415 16.0138 34.8883 11.0236 34.8943ZM38.9646 34.8943C33.972 34.8943 29.9249 30.8439 29.9249 25.8474C29.9249 20.8509 33.972 16.8006 38.9646 16.8006C43.9571 16.8006 48.0043 20.8509 48.0043 25.8474C47.9987 30.8415 43.9547 34.8883 38.9646 34.8943Z" fill="#16162E" stroke="#16162E" stroke-width="0.7"/>
</svg>
