<svg width="24" height="24" viewBox="0 0 24 24" fill="none" xmlns="http://www.w3.org/2000/svg">
<path d="M9.50004 6.5L4.14146 11.8586C4.06336 11.9367 4.06336 12.0633 4.14146 12.1414L9.50004 17.5M4.08289 12H20" stroke="#FFA500" stroke-width="1.5" stroke-linecap="round"/>
</svg>
