<svg width="31" height="44" viewBox="0 0 31 44" fill="none" xmlns="http://www.w3.org/2000/svg">
<path fill-rule="evenodd" clip-rule="evenodd" d="M30.997 36.1029V43.9997C18.8919 43.9997 7.93283 38.9878 0 31.0254L5.49197 25.5283C12.0192 32.0618 21.0366 36.1029 30.997 36.1029Z" fill="#F7F7F7"/>
</svg>
