<svg width="39" height="37" viewBox="0 0 39 37" fill="none" xmlns="http://www.w3.org/2000/svg">
<path d="M19.2477 36.7463C17.9155 36.7463 16.5839 36.4778 15.3508 35.9415L9.45458 33.3783C7.32145 32.4505 5.066 31.8628 2.751 31.6314L0.814701 31.4377C0.495908 31.406 0.253425 31.1378 0.253425 30.8176V24.7438C0.253425 24.609 0.297286 24.4778 0.378232 24.3701C0.523009 24.1764 3.99337 19.6427 9.29447 20.8223C12.2759 21.4849 14.6765 22.7247 16.1653 23.6483C17.2461 24.3187 18.5131 24.6728 19.8293 24.6728H25.7255C26.7418 24.6728 27.6351 25.2106 28.1347 26.0172L33.2129 20.1666C34.1975 18.8518 35.8082 18.0466 37.4945 18.0466H37.8739C38.0847 18.0466 38.2808 18.1529 38.3956 18.329C38.5108 18.5052 38.529 18.7281 38.4445 18.9206L33.8516 29.3588C32.8474 31.6417 30.8027 33.3662 28.3825 33.9713L27.5745 34.1731L22.8739 36.0535C21.7171 36.516 20.4822 36.7463 19.2477 36.7463ZM1.50007 30.2535L2.87509 30.3911C5.31882 30.6354 7.69979 31.2562 9.95203 32.2354L15.8479 34.7986C17.9212 35.7001 20.3121 35.7354 22.4114 34.8956L27.1505 33C27.1769 32.9896 27.2036 32.9811 27.2311 32.9743L28.0801 32.7618C30.1295 32.2493 31.8607 30.7894 32.7105 28.8567L36.8997 19.336C35.8271 19.494 34.8401 20.0721 34.1825 20.9486L28.5569 27.4321C28.5576 27.4564 28.558 27.4803 28.558 27.5049C28.558 29.0664 27.2874 30.3369 25.7259 30.3369H17.4993C16.4299 30.3369 15.3729 30.5084 14.3584 30.8465L14.1295 30.2653L13.9359 29.673L13.9676 29.6626C15.1062 29.2832 16.2955 29.0903 17.4993 29.0903H25.7259C26.5999 29.0903 27.3117 28.3789 27.3117 27.5045C27.3117 26.6301 26.6003 25.9187 25.7259 25.9187H19.8296C18.281 25.9187 16.7868 25.4997 15.5088 24.707C14.1024 23.8345 11.8352 22.6638 9.02489 22.0387C5.01037 21.1482 2.12161 24.2292 1.50043 24.9641V30.2535H1.50007Z" fill="#16162E" stroke="#16162E" stroke-width="0.5"/>
<path d="M24.7981 17.9062C23.8396 17.9062 22.7649 17.6103 21.5817 17.0187C21.4383 16.9467 21.3278 16.8219 21.2736 16.671C21.2254 16.5359 20.1118 13.3326 21.8816 10.9637C23.1678 9.24176 25.5862 8.46617 29.0737 8.66052C29.3918 8.67799 29.6453 8.93295 29.661 9.25175C29.6735 9.49922 29.9306 15.3406 26.952 17.2854C26.3187 17.6994 25.5991 17.9062 24.7981 17.9062ZM22.3765 16.0184C24.0136 16.7862 25.3223 16.8614 26.2709 16.242C28.0371 15.0885 28.419 11.6641 28.4283 9.88185C25.6957 9.81516 23.8353 10.431 22.88 11.7094C21.7432 13.2317 22.185 15.3256 22.3765 16.0184Z" fill="#16162E" stroke="#16162E" stroke-width="0.5"/>
<path d="M15.2667 9.74039C14.1616 9.74039 12.8868 9.50361 11.7743 8.6888C9.88717 7.30593 9.01994 4.67321 9.19609 0.864087C9.21107 0.54565 9.46354 0.289616 9.78198 0.270717C10.0516 0.255383 16.4324 -0.0851624 18.5795 3.13772C19.5794 4.63791 19.4973 6.60273 18.3366 8.97871C18.266 9.12313 18.1426 9.23474 17.9918 9.29001C17.908 9.32104 16.738 9.74039 15.2667 9.74039ZM17.7768 8.7052H17.7828H17.7768ZM10.4228 1.49704C10.3689 4.54804 11.0703 6.62769 12.5106 7.68321C14.2351 8.94661 16.5897 8.40959 17.33 8.19385C18.1769 6.35597 18.2486 4.88859 17.5425 3.8288C16.2302 1.85898 12.3819 1.47386 10.4228 1.49704Z" fill="#16162E" stroke="#16162E" stroke-width="0.5"/>
<path d="M20.1333 25.7004C20.1137 25.7004 20.0941 25.6993 20.0741 25.6975C19.7421 25.6662 19.4936 25.3791 19.5104 25.0457C19.5471 24.3125 19.6099 23.6172 19.6951 22.9582C19.9543 18.5479 19.8206 8.27728 13.327 5.43595C13.0118 5.29795 12.8678 4.93066 13.0058 4.61507C13.1434 4.3002 13.5118 4.15649 13.8266 4.29414C17.6532 5.96834 20.0606 10.1366 20.787 16.348C20.8522 16.9047 20.9011 17.4535 20.9374 17.988C22.6477 13.6665 25.264 12.1395 25.4198 12.0522C25.7194 11.8828 26.0995 11.9905 26.2685 12.2897C26.4365 12.5892 26.3309 12.9683 26.0324 13.1373C25.9665 13.1758 21.9544 15.5835 20.9474 23.0085C20.8708 24.2787 20.7602 25.0885 20.7499 25.1627C20.7067 25.4736 20.4411 25.7004 20.1333 25.7004Z" fill="#16162E" stroke="#16162E" stroke-width="0.5"/>
</svg>
