<svg width="24" height="24" viewBox="0 0 24 24" fill="none" xmlns="http://www.w3.org/2000/svg">
<path d="M23.1998 23.1998L16.7998 16.7998M10.3998 19.9998C5.09787 19.9998 0.799805 15.7017 0.799805 10.3998C0.799805 5.09787 5.09787 0.799805 10.3998 0.799805C15.7017 0.799805 19.9998 5.09787 19.9998 10.3998C19.9998 15.7017 15.7017 19.9998 10.3998 19.9998Z" stroke="#40AA54"/>
</svg>
