<svg width="360" height="351" viewBox="0 0 360 351" fill="none" xmlns="http://www.w3.org/2000/svg">
<circle cx="181.24" cy="190.25" r="160.212" fill="#E4E4E4"/>
<path d="M328.381 96.8513L334.552 99.6938C334.552 99.6938 345.089 97.6001 346.301 95.6699C347.513 93.7396 348.398 88.7681 349.823 88.8024C351.307 88.8509 354.048 89.6336 354.336 93.0975C354.541 95.6154 350.107 102.387 350.601 103.185C350.915 103.692 354.43 105.402 356.999 106.637C358.682 107.412 359.773 109.094 359.868 111.031C359.941 112.282 359.043 113.424 357.842 113.752L355.909 114.275L356.313 116.224C356.593 117.649 355.625 119.082 354.175 119.412L352.666 119.728L353.002 120.92C353.445 122.446 352.435 124.054 350.808 124.342L349.503 124.584L349.551 124.904C349.595 126.272 348.611 127.516 347.188 127.73L345.898 127.913L329.451 120.376C327.931 119.702 326.568 118.634 325.437 117.374L320.08 113.74C319.488 113.351 319.289 112.624 319.634 111.966L326.582 97.5912C326.883 96.8611 327.716 96.5062 328.381 96.8513Z" fill="#50BFA5"/>
<path d="M70.064 18.0228C46.8257 18.0228 27.9794 36.8934 27.9794 60.1799C27.9794 83.4664 46.8257 102.337 70.064 102.337C93.3022 102.337 112.149 83.4664 112.149 60.1799C112.149 36.8934 93.3022 18.0228 70.064 18.0228ZM72.3082 96.2076C52.4483 97.4624 35.3394 82.3322 34.0845 62.4482C32.8297 42.54 47.9358 25.407 67.7957 24.1521C87.6556 22.8973 104.765 38.0275 106.019 57.9115C107.274 77.8197 92.1681 94.9528 72.3082 96.2076Z" fill="#184655"/>
<path opacity="0.3" d="M70.0634 96.2799C89.961 96.2799 106.091 80.1173 106.091 60.1798C106.091 40.2423 89.961 24.0797 70.0634 24.0797C50.1658 24.0797 34.0357 40.2423 34.0357 60.1798C34.0357 80.1173 50.1658 96.2799 70.0634 96.2799Z" fill="#9BC1F9"/>
<path d="M44.5811 59.4565H31.309V60.47H44.5811V59.4565Z" fill="#184655"/>
<path d="M108.89 59.4565H95.6181V60.47H108.89V59.4565Z" fill="#184655"/>
<path d="M70.5214 21.6194H69.5079V34.9398H70.5214V21.6194Z" fill="#184655"/>
<path d="M70.5214 85.7833H69.5079V99.1037H70.5214V85.7833Z" fill="#184655"/>
<path d="M71.1749 60.1813C71.1749 60.7845 70.6923 61.2913 70.0649 61.2913C69.4616 61.2913 68.9549 60.8087 68.9549 60.1813C68.9549 59.578 69.4375 59.0712 70.0649 59.0712C70.6682 59.0712 71.1749 59.578 71.1749 60.1813Z" fill="#184655"/>
<path d="M70.0632 60.6636C69.9426 60.6636 69.822 60.6153 69.7254 60.5188L49.9621 40.7313C49.769 40.5382 49.769 40.2245 49.9621 40.0315C50.1551 39.8384 50.4688 39.8384 50.6619 40.0315L70.4252 59.819C70.6183 60.012 70.6183 60.3257 70.4252 60.5188C70.3046 60.6153 70.1839 60.6636 70.0632 60.6636Z" fill="#184655"/>
<path d="M76.4112 80.1857C76.3389 80.1374 76.2665 80.065 76.2423 79.9685L69.8476 60.6395C69.7752 60.4464 69.8958 60.2534 70.0648 60.181C70.2578 60.1086 70.4509 60.2293 70.5233 60.3982L76.918 79.7272C76.9904 79.9203 76.8697 80.1133 76.7008 80.1857C76.6043 80.234 76.5078 80.234 76.4112 80.1857Z" fill="#184655"/>
<path d="M82.0651 298.146C82.0651 298.146 77.715 298.146 76.5853 302.67C75.4557 307.193 75.2955 308.753 75.2955 308.753C75.2955 308.753 70.3469 313.056 75.2955 314.216C80.2441 315.367 82.0567 308.908 82.0567 308.908L82.8154 298.146C82.0651 298.146 82.0651 298.146 82.0651 298.146Z" fill="#FFBE9D"/>
<path d="M131.618 215.625C131.618 215.625 147.08 165.334 148.656 163.17C151.253 159.585 176.282 148.815 176.282 148.815L182.993 135.546L224.597 129.103L234.899 141.956L263.874 162.517L261.851 233.655L260.772 283.326L263.874 325.262L254.77 331.164L245.497 336.222L234.537 341.28L222.735 345.327L210.932 348.446L199.13 350.132L186.484 350.975H174.681L137.166 343.809L140.622 332.083L146.869 219.308L131.618 215.625Z" fill="#07345A"/>
<path d="M149.449 208.848C149.432 208.848 149.415 208.709 149.398 208.44C149.382 208.122 149.356 207.738 149.331 207.272C149.28 206.26 149.238 204.798 149.205 202.985C149.137 199.36 149.129 194.354 149.297 188.826C149.466 183.298 149.761 178.301 150.048 174.684C150.191 172.879 150.317 171.417 150.427 170.405C150.478 169.939 150.52 169.556 150.562 169.245C150.596 168.984 150.621 168.845 150.638 168.845C150.655 168.845 150.655 168.984 150.646 169.253C150.629 169.572 150.612 169.956 150.596 170.421C150.537 171.499 150.452 172.944 150.351 174.7C150.149 178.317 149.896 183.315 149.736 188.834C149.576 194.354 149.525 199.36 149.517 202.977C149.508 204.741 149.508 206.186 149.5 207.264C149.491 207.73 149.483 208.113 149.483 208.432C149.474 208.709 149.466 208.848 149.449 208.848Z" fill="#263238"/>
<g opacity="0.3">
<g opacity="0.3">
<path opacity="0.3" d="M179.258 194.388C179.233 193.8 179.419 193.261 179.747 192.812C180.734 191.464 183.002 190.868 184.662 191.628C186.871 192.648 187.967 195.098 188.405 197.425C188.886 199.973 188.819 202.602 189.316 205.15C189.813 207.697 191.019 210.294 193.32 211.617C196.178 213.25 199.93 212.507 202.931 213.879C207.399 215.92 208.436 221.546 208.664 226.323C209.085 235.379 208.68 244.442 208.276 253.498C207.416 272.777 206.556 292.048 205.696 311.327L203.344 340.339L191.238 345.32L175.22 243.397L179.258 194.388Z" fill="black"/>
</g>
</g>
<path d="M182.706 186.141C182.714 186.149 182.613 186.214 182.394 186.304C182.175 186.386 181.821 186.459 181.374 186.402C180.497 186.312 179.165 185.602 178.626 184.075C178.364 183.332 178.297 182.458 178.381 181.56C178.457 180.653 178.668 179.714 178.87 178.735C179.275 176.767 179.722 174.611 180.185 172.341C181.13 167.809 182.015 163.71 182.672 160.746C183.001 159.325 183.271 158.141 183.473 157.243C183.676 156.418 183.794 155.961 183.827 155.969C183.861 155.977 183.794 156.443 183.642 157.275C183.473 158.182 183.246 159.374 182.976 160.803C182.394 163.783 181.56 167.891 180.615 172.423C180.135 174.684 179.68 176.832 179.266 178.808C178.828 180.751 178.44 182.556 178.921 183.977C179.376 185.389 180.598 186.1 181.399 186.23C182.242 186.386 182.689 186.084 182.706 186.141Z" fill="#263238"/>
<path d="M186.99 167.22C186.99 167.261 186.644 167.261 186.071 167.432C185.506 167.604 184.697 168.004 184.039 168.82C183.382 169.604 182.926 170.886 183.415 172.168C183.854 173.418 185.127 174.61 186.712 174.74C188.305 174.847 189.755 173.867 190.387 172.707C191.078 171.523 190.834 170.184 190.311 169.31C189.797 168.412 189.064 167.881 188.533 167.628C187.993 167.367 187.656 167.318 187.664 167.277C187.664 167.261 187.748 167.269 187.917 167.285C188.077 167.302 188.322 167.359 188.608 167.473C189.19 167.694 189.991 168.208 190.581 169.155C190.868 169.629 191.104 170.2 191.171 170.862C191.23 171.515 191.104 172.242 190.741 172.895C190.05 174.193 188.482 175.288 186.669 175.173C184.865 175.01 183.491 173.687 183.019 172.299C182.766 171.597 182.766 170.862 182.926 170.233C183.095 169.596 183.424 169.065 183.786 168.641C184.528 167.792 185.405 167.416 186.012 167.285C186.315 167.212 186.56 167.195 186.728 167.204C186.905 167.195 186.99 167.212 186.99 167.22Z" fill="#263238"/>
<path d="M201.144 219.21L125.127 205.892L89.6522 213.429L169.049 227.27L201.144 219.21Z" fill="#40AA54"/>
<g opacity="0.6">
<path opacity="0.6" d="M201.144 219.21L125.127 205.892L89.6522 213.429L169.049 227.27L201.144 219.21Z" fill="black"/>
</g>
<path d="M152.542 251.318C153.57 237.746 157.415 203.288 160.298 189.97C161.158 185.985 162.153 181.91 164.547 178.562C166.941 175.215 171.072 172.724 175.228 173.345C178.937 173.9 181.913 176.815 183.422 180.147C184.931 183.478 185.496 187.193 185.336 190.827C184.619 207.289 183.153 225.727 183.169 240.988" fill="#DC8621"/>
<path d="M178.281 218.996C178.298 219.062 177.202 219.331 175.465 219.862C173.728 220.385 171.351 221.201 168.822 222.303C166.293 223.414 164.101 224.614 162.541 225.537C160.99 226.46 160.054 227.072 160.012 227.023C159.995 226.999 160.206 226.819 160.611 226.509C161.015 226.198 161.614 225.774 162.373 225.284C163.89 224.288 166.082 223.038 168.636 221.92C171.191 220.801 173.602 220.025 175.381 219.576C176.266 219.348 176.991 219.184 177.497 219.103C177.994 219.005 178.281 218.972 178.281 218.996Z" fill="#263238"/>
<path d="M179.544 203.337C179.561 203.41 178.397 203.647 176.576 204.194C174.755 204.733 172.285 205.631 169.714 206.938C167.143 208.253 164.984 209.714 163.492 210.857C162 212.001 161.132 212.784 161.081 212.735C161.056 212.711 161.258 212.499 161.629 212.123C162 211.747 162.565 211.233 163.298 210.621C164.757 209.404 166.915 207.885 169.52 206.554C172.125 205.231 174.646 204.374 176.5 203.9C177.428 203.664 178.186 203.5 178.718 203.419C179.249 203.337 179.544 203.304 179.544 203.337Z" fill="#263238"/>
<path d="M177.842 190.729C177.842 190.803 176.94 190.844 175.515 191.097C174.09 191.35 172.151 191.872 170.178 192.82C168.206 193.775 166.604 194.959 165.542 195.906C164.471 196.853 163.898 197.531 163.839 197.482C163.814 197.466 163.94 197.278 164.184 196.96C164.421 196.633 164.817 196.2 165.331 195.686C166.36 194.665 167.97 193.416 169.985 192.436C172.008 191.464 174.006 190.974 175.464 190.795C176.198 190.705 176.788 190.664 177.201 190.68C177.614 190.68 177.833 190.697 177.842 190.729Z" fill="#263238"/>
<path d="M168.401 229.988C168.401 230.02 168.418 230.045 168.418 230.061V277.176C168.418 279.242 166.698 281.382 163.536 282.99C160.383 284.599 155.78 285.709 150.031 285.718H149.955C138.448 285.693 131.568 281.316 131.568 277.168V230.053C131.568 230.045 131.577 230.02 131.577 229.98C131.577 229.955 131.568 229.922 131.568 229.882C131.594 225.276 135.084 220.467 138.608 215.714C140.977 212.546 141.533 207.973 141.643 205.287C141.651 204.968 141.668 204.683 141.668 204.421H141.348C139.83 204.421 138.599 203.401 138.599 202.143V200.151C138.599 198.877 139.822 197.856 141.348 197.856H158.63C159.768 197.856 160.754 198.428 161.167 199.244C161.302 199.53 161.378 199.824 161.378 200.143V202.135C161.378 203.392 160.156 204.413 158.63 204.413H158.31C158.31 204.674 158.318 204.96 158.335 205.279C158.444 207.965 159.009 212.53 161.378 215.706C164.894 220.458 168.392 225.26 168.418 229.873C168.418 229.931 168.401 229.971 168.401 229.988Z" fill="#FAFAFA"/>
<path d="M168.401 229.989C168.401 229.989 168.409 229.826 168.375 229.507C168.367 229.189 168.308 228.715 168.198 228.095C167.954 226.87 167.372 225.09 166.184 222.983C165.02 220.868 163.283 218.451 161.21 215.675C160.164 214.262 159.448 212.507 158.95 210.604C158.461 208.693 158.208 206.619 158.166 204.431V204.284L158.31 204.292C158.959 204.317 159.591 204.219 160.147 203.884C160.687 203.565 161.117 203.026 161.201 202.406C161.243 201.777 161.21 201.067 161.218 200.389C161.277 199.711 161.007 199.074 160.468 198.65C159.945 198.217 159.237 198.005 158.52 198.029C157.77 198.029 157.02 198.029 156.253 198.029C154.727 198.029 153.159 198.037 151.565 198.037C148.37 198.037 145.049 198.045 141.609 198.054C140.774 198.013 139.94 198.258 139.367 198.829C139.088 199.115 138.886 199.466 138.819 199.85C138.76 200.217 138.802 200.683 138.785 201.099C138.793 201.516 138.768 201.989 138.802 202.373C138.852 202.765 139.038 203.133 139.324 203.435C139.898 204.039 140.766 204.3 141.66 204.251L141.862 204.243V204.447C141.837 206.333 141.643 208.252 141.213 210.155C140.774 212.058 140.092 213.968 138.903 215.65C137.714 217.292 136.492 218.917 135.371 220.648C134.249 222.371 133.195 224.183 132.504 226.143C132.159 227.123 131.906 228.144 131.821 229.181C131.762 230.21 131.788 231.296 131.788 232.365C131.788 234.513 131.788 236.677 131.788 238.865C131.788 243.242 131.788 247.692 131.788 252.199C131.788 260.136 131.788 267.877 131.779 275.365C131.796 276.296 131.712 277.26 131.906 278.101C132.1 278.966 132.631 279.734 133.238 280.403C134.477 281.734 136.096 282.69 137.782 283.4C139.468 284.11 141.238 284.576 143.008 284.911C144.779 285.262 146.566 285.417 148.328 285.499C151.852 285.646 155.325 285.368 158.562 284.592C160.181 284.192 161.741 283.678 163.182 282.967C164.615 282.265 165.947 281.375 166.942 280.232C167.44 279.66 167.819 279.015 168.047 278.321C168.274 277.635 168.224 276.9 168.232 276.157C168.232 274.679 168.241 273.234 168.241 271.813C168.249 268.98 168.249 266.252 168.257 263.656C168.283 253.269 168.308 244.859 168.325 239.028C168.35 233.206 168.401 229.989 168.401 229.989C168.418 229.989 168.434 230.185 168.434 230.585C168.443 230.993 168.443 231.573 168.46 232.324C168.468 233.868 168.485 236.121 168.502 239.02C168.519 244.85 168.544 253.253 168.569 263.648C168.578 266.244 168.578 268.971 168.586 271.805C168.586 273.226 168.586 274.671 168.595 276.149C168.595 276.516 168.595 276.892 168.595 277.268C168.595 277.66 168.51 278.043 168.409 278.419C168.165 279.162 167.76 279.856 167.237 280.452C166.2 281.661 164.826 282.567 163.368 283.286C161.901 284.012 160.308 284.543 158.672 284.943C155.384 285.735 151.886 286.021 148.328 285.874C146.549 285.801 144.745 285.637 142.949 285.286C141.154 284.951 139.358 284.478 137.63 283.759C135.91 283.041 134.241 282.069 132.934 280.665C132.302 279.962 131.729 279.146 131.509 278.19C131.29 277.219 131.391 276.296 131.366 275.357C131.366 267.877 131.366 260.128 131.358 252.191C131.358 247.676 131.358 243.225 131.358 238.857C131.358 236.669 131.358 234.505 131.358 232.357C131.366 231.279 131.341 230.234 131.4 229.14C131.493 228.062 131.754 227.009 132.108 226.004C132.816 223.987 133.895 222.158 135.025 220.419C136.155 218.68 137.394 217.039 138.574 215.414C139.721 213.797 140.395 211.927 140.825 210.057C141.255 208.187 141.44 206.284 141.474 204.431L141.668 204.619C140.741 204.676 139.695 204.39 139.046 203.68C138.717 203.337 138.49 202.888 138.431 202.414C138.397 201.932 138.422 201.532 138.414 201.091C138.431 200.65 138.38 200.258 138.456 199.777C138.532 199.311 138.785 198.895 139.105 198.56C139.763 197.898 140.741 197.629 141.617 197.678C145.057 197.686 148.379 197.686 151.574 197.694C153.167 197.694 154.735 197.702 156.261 197.702C157.028 197.702 157.778 197.702 158.529 197.702C159.296 197.678 160.097 197.915 160.687 198.405C161.294 198.87 161.614 199.679 161.538 200.381C161.53 201.075 161.555 201.728 161.513 202.438C161.412 203.157 160.915 203.769 160.308 204.121C159.709 204.488 158.967 204.594 158.318 204.562L158.461 204.423C158.529 208.734 159.389 212.719 161.395 215.536C163.452 218.329 165.172 220.77 166.327 222.901C167.49 225.024 168.063 226.829 168.283 228.07C168.375 228.691 168.426 229.173 168.426 229.491C168.434 229.834 168.418 229.989 168.401 229.989Z" fill="#263238"/>
<path d="M157.332 204.325C157.332 204.439 153.884 204.537 149.635 204.537C145.386 204.537 141.938 204.439 141.938 204.325C141.938 204.21 145.386 204.113 149.635 204.113C153.892 204.113 157.332 204.21 157.332 204.325Z" fill="#263238"/>
<path d="M166.859 236.286C165.299 235.306 163.259 235.739 161.59 236.498C159.92 237.258 158.344 238.336 156.531 238.621C154.399 238.956 152.249 238.131 150.352 237.086C148.455 236.049 146.659 234.767 144.619 234.057C140.708 232.701 136.071 233.763 133.12 236.678V277.13C133.12 277.13 135.413 284.03 151.566 282.944C167.718 281.858 166.446 274.958 166.446 274.958L166.859 236.286Z" fill="#40AA54"/>
<path d="M124.065 208.75C124.537 205.77 123.736 202.618 121.89 200.193C120.044 197.767 117.169 196.094 114.092 195.661C113.805 195.62 113.485 195.595 113.249 195.759C112.912 195.987 112.895 196.461 112.928 196.861C113.207 199.752 114.454 202.544 116.435 204.725C118.417 206.905 121.123 208.448 124.048 209.085" fill="#455A64"/>
<path d="M107.483 229.908C110.467 235.869 114.758 239.886 120.078 240.082C121.14 240.115 121.941 239.445 122.961 239.38C123.484 239.413 124.082 239.772 124.664 240C124.976 240.115 125.279 240.205 125.549 240.196C131.046 239.911 135.725 236.171 138.878 229.908C143.27 221.146 141.913 211.723 135.851 208.865C134.991 208.457 134.173 208.147 133.373 207.926C132.395 207.673 131.425 207.551 130.355 207.583C128.491 207.616 126.35 208.106 123.467 209.094C123.374 209.126 123.265 209.167 123.172 209.2C118.249 207.093 114.312 207.085 110.501 208.865C104.431 211.731 103.082 221.146 107.483 229.908Z" fill="#40AA54"/>
<path d="M107.585 221.031C107.543 221.048 107.231 220.403 107.071 219.268C106.91 218.141 106.986 216.524 107.61 214.883C108.242 213.241 109.262 211.959 110.148 211.208C111.024 210.449 111.699 210.155 111.716 210.187C111.758 210.253 111.159 210.628 110.358 211.42C109.566 212.204 108.622 213.454 108.023 215.03C107.425 216.606 107.298 218.149 107.382 219.243C107.458 220.337 107.661 221.007 107.585 221.031Z" fill="#FAFAFA"/>
<path d="M108.705 225.196C108.587 225.22 108.385 224.812 108.258 224.273C108.132 223.734 108.124 223.285 108.242 223.252C108.36 223.228 108.562 223.636 108.688 224.175C108.815 224.714 108.823 225.171 108.705 225.196Z" fill="#FAFAFA"/>
<path d="M136.593 194.411C136.627 194.485 135.455 194.909 133.752 195.906C132.892 196.395 131.931 197.057 130.92 197.865C129.925 198.69 128.888 199.67 127.927 200.797C126.974 201.94 126.19 203.116 125.549 204.226C124.934 205.345 124.453 206.398 124.125 207.305C123.459 209.117 123.265 210.31 123.18 210.293C123.147 210.285 123.18 209.991 123.273 209.452C123.315 209.183 123.374 208.856 123.475 208.481C123.577 208.105 123.669 207.672 123.838 207.207C124.133 206.268 124.588 205.19 125.195 204.038C125.828 202.895 126.62 201.695 127.59 200.527C128.576 199.376 129.638 198.388 130.667 197.563C131.712 196.755 132.715 196.11 133.609 195.644C134.039 195.391 134.46 195.22 134.823 195.048C135.185 194.877 135.506 194.754 135.767 194.664C136.29 194.477 136.585 194.387 136.593 194.411Z" fill="#263238"/>
<path d="M89.6521 213.429L80.1005 330.131L169.125 350.977C169.125 350.977 200.174 340.779 200.596 340.085C201.017 339.39 201.135 219.21 201.135 219.21L169.049 227.277L89.6521 213.429Z" fill="#549C8B" fill-opacity="0.992"/>
<g opacity="0.4">
<path opacity="0.4" d="M89.6521 213.429L80.1005 330.131L169.125 350.977C169.125 350.977 200.174 340.779 200.596 340.085C201.017 339.39 201.135 219.21 201.135 219.21L169.049 227.277L89.6521 213.429Z" fill="black"/>
</g>
<path d="M229.284 77.4893L224.318 145.598C223.509 156.72 213.957 165.343 202.45 165.343C189.779 165.343 179.738 154.964 180.573 142.716C181.011 136.232 181.408 130.925 181.408 130.925C181.408 130.925 164.387 128.361 164.176 111.874C164.058 102.353 165.752 80.7473 167.202 64.1876C168.189 52.9926 177.858 44.4024 189.45 44.4024H199.735C217.447 45.4068 230.81 60.3661 229.284 77.4893Z" fill="#F7A491"/>
<path d="M181.407 130.916C181.407 130.916 192.139 131.528 203.571 124.571C203.571 124.571 198.091 136.566 181.104 135.08L181.407 130.916Z" fill="#EB996E"/>
<path d="M170.398 81.1867C170.702 81.497 172.539 80.1741 175.153 80.1823C177.766 80.1496 179.688 81.4561 179.967 81.1458C180.11 81.007 179.798 80.4518 178.963 79.8638C178.137 79.2759 176.738 78.7043 175.111 78.7125C173.484 78.7207 172.109 79.3004 171.325 79.8965C170.525 80.5008 170.255 81.056 170.398 81.1867Z" fill="#263238"/>
<path d="M198.707 84.1016C198.665 85.3428 199.71 86.4043 201.051 86.4778C202.391 86.5513 203.513 85.5959 203.555 84.3547C203.597 83.1136 202.551 82.0439 201.211 81.9785C199.879 81.9051 198.758 82.8523 198.707 84.1016Z" fill="#263238"/>
<path d="M172.759 84.1016C172.717 85.3428 173.762 86.4043 175.102 86.4778C176.443 86.5513 177.564 85.5959 177.606 84.3547C177.648 83.1136 176.603 82.0439 175.263 81.9785C173.931 81.9051 172.801 82.8523 172.759 84.1016Z" fill="#263238"/>
<path d="M195.85 81.1867C196.153 81.497 197.999 80.1741 200.613 80.1823C203.226 80.1496 205.148 81.4561 205.427 81.1458C205.561 81.007 205.258 80.4518 204.423 79.8638C203.597 79.2759 202.198 78.7043 200.571 78.7125C198.944 78.7207 197.569 79.3004 196.785 79.8965C195.976 80.5008 195.706 81.056 195.85 81.1867Z" fill="#263238"/>
<path d="M186.357 99.9764C186.365 99.8294 184.747 99.5599 182.108 99.2333C181.442 99.168 180.81 99.0373 180.692 98.5964C180.531 98.131 180.81 97.4287 181.138 96.6775C181.771 95.1097 182.42 93.4684 183.111 91.7537C185.851 84.7394 187.841 78.9746 187.545 78.8684C187.25 78.7623 184.789 84.3638 182.049 91.378C181.391 93.1091 180.759 94.7586 180.16 96.3345C179.908 97.0694 179.469 97.9023 179.815 98.874C179.992 99.3558 180.481 99.7069 180.911 99.8212C181.341 99.9437 181.712 99.9519 182.049 99.9764C184.704 100.115 186.348 100.123 186.357 99.9764Z" fill="#263238"/>
<path d="M194.054 101.731C193.632 101.707 193.624 104.459 191.196 106.41C188.768 108.37 185.742 108.06 185.725 108.443C185.683 108.615 186.399 108.974 187.672 109.015C188.928 109.056 190.758 108.664 192.241 107.472C193.725 106.271 194.357 104.679 194.459 103.552C194.568 102.401 194.248 101.715 194.054 101.731Z" fill="#263238"/>
<path d="M195.175 72.955C195.436 73.6409 198.041 73.3142 201.11 73.6735C204.187 73.9756 206.665 74.8412 207.07 74.2206C207.255 73.9267 206.817 73.2734 205.822 72.612C204.827 71.9424 203.251 71.3137 201.405 71.1177C199.558 70.9217 197.872 71.2075 196.76 71.6485C195.63 72.0894 195.065 72.6283 195.175 72.955Z" fill="#263238"/>
<path d="M170.761 73.9355C171.224 74.5071 173.02 73.911 175.187 73.8865C177.353 73.7885 179.191 74.2703 179.613 73.6742C179.798 73.3802 179.511 72.8087 178.71 72.2616C177.918 71.7226 176.603 71.2735 175.111 71.3225C173.619 71.3715 172.329 71.8859 171.578 72.482C170.811 73.0618 170.558 73.6579 170.761 73.9355Z" fill="#263238"/>
<path d="M223.543 89.8597C223.829 89.7373 235.236 86.5119 234.865 97.7803C234.494 109.049 222.885 106.362 222.877 106.044C222.868 105.717 223.543 89.8597 223.543 89.8597Z" fill="#FFBE9D"/>
<path d="M226.577 101.879C226.628 101.847 226.779 102.026 227.117 102.19C227.445 102.345 228.019 102.467 228.634 102.263C229.882 101.863 230.978 100.01 231.096 97.9763C231.163 96.9474 230.969 95.9675 230.624 95.151C230.295 94.3181 229.764 93.722 229.148 93.5995C228.541 93.4444 228.086 93.7873 227.934 94.0976C227.766 94.4079 227.833 94.6366 227.774 94.6529C227.74 94.6774 227.53 94.4569 227.639 93.9915C227.698 93.771 227.842 93.5097 228.12 93.2974C228.406 93.0851 228.82 92.9871 229.25 93.0443C230.143 93.1341 230.927 93.9588 231.307 94.857C231.736 95.7634 231.981 96.8658 231.905 98.0171C231.753 100.287 230.489 102.378 228.786 102.794C227.96 102.974 227.285 102.712 226.94 102.435C226.586 102.157 226.535 101.904 226.577 101.879Z" fill="#EB996E"/>
<path d="M230.017 89.4759C228.238 89.0595 225.169 90.6436 224.419 92.2522C223.66 93.8608 223.492 95.6818 222.742 97.2985C221.991 98.9072 220.28 100.369 218.501 99.9605C217.279 99.6829 216.402 98.5642 216.073 97.3884C215.753 96.2125 215.879 94.9632 216.039 93.7547C216.722 88.4879 217.869 83.2701 218.088 77.9707C218.307 72.6712 217.523 67.1595 214.657 62.6439C211.782 58.1283 206.505 54.805 201.042 55.2296C197.425 55.5154 194.112 57.3363 190.512 57.8262C186.255 58.406 181.745 56.9443 178.701 54.0047C178.313 53.6291 176.493 52.4696 176.493 52.4696C176.493 52.2002 176.762 49.8403 177.715 48.9829C184.847 42.5975 197.686 40.8174 207.103 43.1119C216.52 45.4064 225.346 51.849 229.393 60.3902C233.457 68.9395 232.251 80.8286 230.017 89.4759Z" fill="#263238"/>
<path d="M165.339 61.2154C166.865 64.6368 170.751 66.6292 174.587 67.0129C178.415 67.3886 182.242 66.425 185.943 65.4125C189.644 64.4 199.583 62.7995 203.428 62.9138C204.001 62.9302 204.692 62.922 205.004 62.4484C205.409 61.8196 204.76 61.0684 204.161 60.6111C199.086 56.7652 186.828 54.4053 180.387 54.1358C173.947 53.8746 167.185 56.5529 163.704 61.8033" fill="#263238"/>
<path d="M167.018 61.6395C167.018 61.6395 211.673 47.7254 230.987 85.1399C230.987 85.1399 233.87 75.7741 233.87 70.7522C233.87 67.3962 231.797 47.4314 210.586 41.1521C210.594 41.1602 178.635 29.3528 167.018 61.6395Z" fill="#07345A"/>
<g opacity="0.4">
<g opacity="0.4">
<g opacity="0.4">
<path opacity="0.4" d="M167.018 61.6395C167.018 61.6395 172.101 55.7848 181.214 55.3928C194.383 54.8294 219.041 62.0069 230.987 85.1399C230.987 85.1399 233.87 75.7741 233.87 70.7522C233.87 67.3962 231.797 47.4314 210.586 41.1521C210.594 41.1602 178.635 29.3528 167.018 61.6395Z" fill="black"/>
</g>
</g>
</g>
<path d="M229.124 80.7631C222.506 70.9481 213.376 62.8397 203.108 56.6257C192.839 50.4117 175.869 44.2712 164.176 41.2663C160.661 40.3599 157.002 39.576 153.419 40.1721C149.836 40.7682 146.338 43.079 145.444 46.4922C144.331 50.7628 152.155 57.3524 155.839 59.9491C159.514 62.5375 167.017 66.3427 167.017 66.3427C167.017 66.3427 166.916 58.4221 180.008 56.789C197.813 54.568 229.124 80.7631 229.124 80.7631Z" fill="#07345A"/>
<path d="M192.503 48.4431C192.503 48.4431 186.07 44.9973 179.604 44.1889C180.928 43.2498 181.636 42.7926 183.111 42.1475C186.416 42.7844 189.771 43.5928 193.16 45.4219L192.503 48.4431Z" fill="#FAFAFA"/>
<path d="M248.598 160.794C248.598 160.794 236.391 174.308 237.74 193.113C237.925 195.718 238.06 199.36 238.389 201.957C240.446 218.092 243.633 233.059 243.633 233.059H244.796L287.361 222.877C287.361 222.877 280.946 187.087 279.479 182.335C274.758 167.122 258.588 158.753 258.588 158.753L248.598 160.794Z" fill="#FAC971"/>
<path d="M200.604 340.085C200.604 340.085 200.587 339.88 200.587 339.472C200.587 339.056 200.578 338.46 200.578 337.684C200.578 336.1 200.57 333.773 200.57 330.784C200.579 324.766 200.595 316.053 200.621 305.21C200.697 283.505 200.806 253.285 200.933 219.21L201.202 219.414C196.026 220.712 190.555 222.092 185.008 223.48C179.562 224.852 174.191 226.2 169.108 227.473L169.268 227.269C169.487 244.352 169.428 260.47 169.344 275.038C169.251 289.597 169.175 302.613 169.108 313.489C169.066 324.366 169.066 333.111 169.091 339.129C169.108 342.134 169.116 344.461 169.125 346.054C169.125 346.838 169.125 347.434 169.125 347.85C169.125 348.25 169.108 348.462 169.108 348.462C169.108 348.462 169.091 348.258 169.083 347.85C169.074 347.434 169.057 346.838 169.041 346.054C169.015 344.461 168.981 342.134 168.931 339.129C168.855 333.103 168.804 324.366 168.813 313.489C168.855 302.605 168.897 289.597 168.956 275.038C169.015 260.47 169.057 244.36 168.838 227.277V227.114L169.007 227.073C174.09 225.799 179.46 224.444 184.906 223.08C190.454 221.684 195.925 220.312 201.101 219.014L201.379 218.949V219.226C201.202 253.301 201.042 283.522 200.924 305.226C200.848 316.07 200.789 324.782 200.747 330.8C200.713 333.797 200.697 336.116 200.68 337.7C200.671 338.476 200.654 339.072 200.654 339.489C200.621 339.88 200.604 340.085 200.604 340.085Z" fill="#263238"/>
<path d="M180.894 136.492C180.894 136.492 179.191 152.179 184.654 154.62C190.8 157.364 196.929 154.685 200.697 152.35C210.738 146.144 225.659 128.907 225.659 128.907L235.742 141.629C235.742 141.629 210.266 171.278 205.148 171.09C201.81 170.967 196.591 167.799 193.371 165.603C191.592 164.394 190.016 162.949 188.675 161.299L184.266 155.869C178.761 158.499 174.31 161.863 171.233 166.191C171.233 166.191 169.766 155.208 172.405 150.219C175.043 145.23 180.304 136.648 180.304 136.648L180.894 136.492Z" fill="#FAC971"/>
<path d="M172.076 150.66C172.084 150.66 172.05 150.758 171.974 150.93C171.89 151.126 171.781 151.379 171.646 151.697C171.418 152.392 171.081 153.429 170.895 154.809C170.474 157.56 170.364 161.619 170.904 166.567L170.6 166.51C171.848 164.37 173.728 162.313 176.063 160.484C178.382 158.638 181.096 156.956 184.139 155.527L184.274 155.462L184.376 155.576C186.154 157.577 188.026 159.659 190.015 161.774C191.997 163.88 194.129 166.004 196.667 167.718C197.856 168.519 199.129 169.188 200.452 169.654C201.118 169.882 201.793 170.07 202.476 170.184C203.158 170.282 203.841 170.315 204.524 170.258C207.264 170.013 209.591 168.494 211.504 166.894L211.488 166.91C218.544 159.618 224.605 153.363 228.922 148.897C231.071 146.7 232.783 144.953 233.98 143.728C234.562 143.148 235.008 142.691 235.337 142.364C235.48 142.225 235.598 142.111 235.691 142.021C235.775 141.948 235.818 141.907 235.818 141.915C235.826 141.915 235.784 141.964 235.716 142.046C235.632 142.144 235.523 142.266 235.388 142.413C235.067 142.756 234.637 143.222 234.073 143.826C232.892 145.067 231.215 146.847 229.107 149.076C224.816 153.559 218.797 159.855 211.783 167.188L211.774 167.196L211.766 167.204C210.779 168.029 209.726 168.821 208.52 169.458C207.331 170.094 205.974 170.56 204.549 170.691C203.841 170.748 203.116 170.723 202.4 170.617C201.683 170.495 200.992 170.307 200.301 170.07C198.935 169.588 197.628 168.902 196.414 168.086C193.826 166.346 191.676 164.191 189.695 162.076C187.706 159.953 185.834 157.871 184.064 155.854L184.308 155.903C181.307 157.299 178.601 158.973 176.299 160.778C173.989 162.574 172.126 164.591 170.887 166.673L170.634 167.098L170.583 166.616C170.078 161.627 170.238 157.552 170.718 154.792C170.938 153.404 171.308 152.367 171.561 151.673C171.713 151.338 171.848 151.085 171.932 150.914C172.025 150.742 172.076 150.66 172.076 150.66Z" fill="#263238"/>
<g opacity="0.3">
<g opacity="0.3">
<path opacity="0.3" d="M172.7 163.881C172.312 164.501 172.649 165.947 173.323 166.265C173.998 166.584 174.832 166.347 175.423 165.898C176.013 165.449 176.409 164.82 176.839 164.224C177.851 162.819 179.064 161.554 180.439 160.484C181.796 159.422 183.659 158.524 185.219 159.284C186.256 159.79 186.82 160.876 187.326 161.88C189.434 166.069 191.98 170.34 196.119 172.724C200.275 175.125 205.578 175.223 210.139 173.663C214.7 172.104 218.578 169.017 221.705 165.441C224.833 161.864 227.278 157.789 229.706 153.731C231.611 150.538 233.55 147.248 234.14 143.606C233.609 143.892 232.387 145.729 231.855 146.015C231.855 146.015 212.213 166.976 210.358 168.053C208.503 169.131 203.42 176.382 188.995 160.721L184.224 155.707C184.224 155.715 175.136 159.978 172.7 163.881Z" fill="black"/>
</g>
</g>
<path d="M225.37 209.106L203.762 205.889L202.765 212.21L224.372 215.426L225.37 209.106Z" fill="#FAC971"/>
<path d="M283.787 223.67L250.032 231.566L253.926 262.383L189.35 309.359C186.762 309.71 184.123 310.11 182.656 310.47C179.124 311.327 172.885 319.909 171.123 320.758L158.537 330.165C158.537 330.165 157.432 334.444 163.174 333.586C168.915 332.729 175.313 328.45 175.979 328.45C176.645 328.45 178.652 329.757 177.699 332.517C176.856 334.974 173.391 343.393 173.391 343.393L169.125 350.987C169.125 350.987 187.596 351.575 192.773 344.928C196.28 340.421 207.079 327.642 207.079 327.642C207.079 327.642 283.087 291.419 287.648 283.842C293.853 273.537 283.787 223.67 283.787 223.67Z" fill="#F7A491"/>
<path d="M268.241 275.65C268.149 275.642 268.427 274.343 268.09 272.286C267.778 270.252 266.656 267.427 264.237 265.296C261.801 263.173 258.783 262.381 256.666 262.275C254.517 262.152 253.21 262.552 253.193 262.463C253.185 262.438 253.505 262.324 254.104 262.193C254.702 262.062 255.587 261.948 256.683 261.973C258.858 261.997 261.994 262.765 264.532 264.978C267.053 267.199 268.157 270.154 268.402 272.245C268.536 273.298 268.503 274.164 268.427 274.752C268.351 275.34 268.267 275.658 268.241 275.65Z" fill="#EB996E"/>
<path d="M184.308 339.498C184.367 339.514 184.207 340.298 183.862 341.555C183.516 342.805 182.976 344.552 181.999 346.316C181.021 348.088 179.638 349.427 178.441 350.08C177.842 350.407 177.32 350.595 176.949 350.668C176.578 350.75 176.367 350.75 176.359 350.725C176.333 350.644 177.176 350.521 178.281 349.819C179.385 349.133 180.667 347.827 181.611 346.112C182.572 344.389 183.145 342.69 183.567 341.466C183.988 340.241 184.249 339.481 184.308 339.498Z" fill="#EB996E"/>
<path d="M193.263 336.647C193.313 336.663 193.094 337.431 192.614 338.639C192.133 339.839 191.383 341.473 190.405 343.195C189.427 344.918 188.407 346.405 187.614 347.442C186.822 348.479 186.274 349.075 186.232 349.042C186.181 349.001 186.645 348.348 187.361 347.27C188.086 346.2 189.056 344.698 190.025 342.991C190.995 341.285 191.787 339.684 192.335 338.525C192.875 337.349 193.204 336.622 193.263 336.647Z" fill="#EB996E"/>
<path d="M193.017 283.327C193.051 283.327 193.101 283.694 193.169 284.364C193.244 285.033 193.303 286.013 193.337 287.213C193.413 289.622 193.295 292.97 192.756 296.62C192.208 300.27 191.331 303.512 190.555 305.798C190.167 306.941 189.822 307.864 189.56 308.485C189.299 309.113 189.139 309.448 189.114 309.44C189.088 309.432 189.189 309.073 189.4 308.428C189.619 307.791 189.914 306.86 190.26 305.708C190.96 303.406 191.778 300.18 192.317 296.555C192.857 292.929 193.017 289.614 193.025 287.213C193.034 286.013 193.017 285.041 193 284.372C192.983 283.702 192.992 283.335 193.017 283.327Z" fill="#263238"/>
<path d="M174.749 293.132C174.808 293.115 175.196 294.103 175.82 295.704C176.443 297.304 177.312 299.509 178.323 301.918C179.344 304.327 180.321 306.491 181.038 308.05C181.755 309.61 182.193 310.582 182.134 310.606C182.083 310.631 181.544 309.708 180.751 308.181C179.959 306.646 178.939 304.498 177.91 302.081C176.89 299.664 176.064 297.435 175.516 295.802C174.968 294.177 174.69 293.148 174.749 293.132Z" fill="#263238"/>
<path d="M169.858 314.274C169.858 314.29 169.681 314.339 169.327 314.429C168.931 314.519 168.416 314.641 167.784 314.788C167.11 314.943 166.292 315.123 165.323 315.278C164.353 315.442 163.266 315.662 162.035 315.809C160.812 315.98 159.472 316.16 158.022 316.274C156.58 316.438 155.029 316.503 153.402 316.601C150.139 316.723 146.54 316.707 142.78 316.438C139.02 316.144 135.462 315.637 132.259 315.041C130.665 314.707 129.139 314.413 127.74 314.045C126.324 313.719 125.034 313.343 123.854 312.992C122.665 312.665 121.62 312.29 120.692 311.987C119.765 311.685 118.972 311.391 118.332 311.138C117.725 310.901 117.236 310.705 116.856 310.558C116.519 310.42 116.351 310.346 116.351 310.33C116.359 310.314 116.536 310.371 116.882 310.477C117.269 310.607 117.767 310.771 118.382 310.983C119.031 311.212 119.824 311.481 120.76 311.759C121.695 312.045 122.741 312.396 123.938 312.706C125.118 313.033 126.416 313.392 127.824 313.702C129.224 314.062 130.741 314.339 132.335 314.658C135.53 315.237 139.07 315.727 142.813 316.021C146.557 316.283 150.131 316.315 153.385 316.217C155.012 316.136 156.555 316.078 157.988 315.931C159.43 315.825 160.77 315.67 161.984 315.515C163.207 315.384 164.302 315.188 165.272 315.05C166.241 314.911 167.068 314.764 167.742 314.633C168.383 314.519 168.897 314.429 169.302 314.355C169.664 314.282 169.85 314.257 169.858 314.274Z" fill="#263238"/>
<path d="M166.638 300.073C166.579 300.179 164.783 299.338 162.633 298.203C160.484 297.068 158.781 296.064 158.84 295.958C158.899 295.852 160.686 296.693 162.844 297.828C165.002 298.971 166.697 299.967 166.638 300.073Z" fill="#263238"/>
<path d="M287.361 222.876C287.361 222.885 287.293 222.901 287.15 222.942C286.99 222.983 286.787 223.04 286.526 223.105C285.953 223.244 285.143 223.448 284.107 223.701C281.965 224.216 278.897 224.951 275.035 225.873C267.263 227.702 256.345 230.274 243.674 233.255L243.455 233.304L243.422 233.083C242.528 227.474 241.322 221.415 240.151 215.119C239.383 210.914 238.717 206.79 238.262 202.781C237.815 198.772 237.596 194.885 237.546 191.186C237.495 187.487 237.638 183.951 238.178 180.685C238.709 177.427 239.645 174.447 240.943 171.923C242.267 169.417 243.911 167.383 245.597 165.856C247.283 164.329 248.986 163.292 250.461 162.639C251.945 161.986 253.184 161.725 254.019 161.561C254.44 161.504 254.76 161.471 254.98 161.447C255.199 161.422 255.308 161.414 255.308 161.422C255.308 161.431 255.199 161.455 254.988 161.488C254.752 161.529 254.44 161.578 254.035 161.643C253.209 161.839 251.987 162.117 250.537 162.794C249.087 163.456 247.418 164.509 245.765 166.028C244.121 167.555 242.511 169.572 241.221 172.054C239.957 174.553 239.046 177.5 238.54 180.734C238.026 183.968 237.891 187.487 237.95 191.178C238.018 194.869 238.237 198.739 238.692 202.732C239.147 206.725 239.813 210.84 240.589 215.037C241.761 221.325 242.966 227.392 243.843 233.018L243.59 232.855C256.278 229.931 267.204 227.417 274.993 225.62C278.863 224.746 281.948 224.044 284.09 223.562C285.135 223.334 285.944 223.154 286.526 223.032C286.787 222.974 286.998 222.934 287.158 222.901C287.285 222.885 287.352 222.868 287.361 222.876Z" fill="#263238"/>
<path d="M265.849 28.1499L270.205 18.5492L264.568 9.61354C263.928 8.61607 264.782 7.28611 265.978 7.41079L276.696 8.49138L283.699 0.511624C284.511 -0.402724 286.005 -0.0286726 286.262 1.13504L288.525 11.4007L298.475 15.3906C299.628 15.8477 299.713 17.3855 298.646 17.9673L289.336 23.2456L288.525 33.7191C288.439 34.9244 286.988 35.4646 286.048 34.675L278.02 27.6927L267.558 30.1448C266.362 30.4357 265.337 29.272 265.849 28.1499Z" fill="#F7CC7F"/>
<path d="M11.05 150.198L4.18001 154.861L8.02886 161.666L1.4485 166.539L4.34551 173.47L0 177.965L2.23484 180.191L8.02886 174.184L5.29741 167.631L12.1261 162.548L8.35997 155.869L14.5678 151.627L11.05 150.198Z" fill="#50BFA5"/>
<path d="M81.7937 173.424L73.6293 171.226L71.0488 178.524L62.9266 176.7L59.5847 183.375L53.2816 183.002L53.0701 186.112L61.5307 186.651L64.7034 180.307L73.1216 182.214L75.6598 175.041L83.0628 177.031L81.7937 173.424Z" fill="#FA7167"/>
</svg>
