<svg width="20" height="22" viewBox="0 0 20 22" fill="none" xmlns="http://www.w3.org/2000/svg">
<path d="M3.42125 21.2436C3.8987 21.5418 4.52751 21.396 4.82574 20.9185L16.9046 1.56829C17.1017 1.25911 17.1181 0.867788 16.9469 0.543675C16.7756 0.219064 16.443 0.0119502 16.0766 0.000499291C15.7102 -0.0109517 15.3656 0.175252 15.1745 0.488412L3.09614 19.8386C2.79791 20.3166 2.94329 20.9454 3.42125 21.2436Z" fill="white"/>
<path d="M4.50273 10.7529C6.98561 10.7529 9.00597 8.44929 9.00597 5.61791C9.00597 2.78652 6.98561 0.483375 4.50273 0.483375C2.01986 0.483375 0 2.78652 0 5.61791C0 8.44929 2.01986 10.7529 4.50273 10.7529ZM4.50273 2.52265C5.86142 2.52265 6.96669 3.91121 6.96669 5.61791C6.96669 7.3246 5.86142 8.71366 4.50273 8.71366C3.14455 8.71366 2.03927 7.32411 2.03927 5.61791C2.03927 3.91171 3.14455 2.52265 4.50273 2.52265Z" fill="white"/>
<path d="M10.9936 15.7883C10.9936 18.6197 13.0135 20.9228 15.4963 20.9228C17.9792 20.9228 19.9996 18.6192 19.9996 15.7883C19.9996 12.9579 17.9797 10.6538 15.4968 10.6538C13.0135 10.6538 10.9936 12.9564 10.9936 15.7883ZM17.9603 15.7883C17.9603 17.495 16.855 18.8836 15.4963 18.8836C14.1381 18.8836 13.0329 17.495 13.0329 15.7883C13.0329 14.0816 14.1381 12.6931 15.4963 12.6931C16.855 12.6931 17.9603 14.0806 17.9603 15.7883Z" fill="white"/>
</svg>
