<svg width="58" height="25" viewBox="0 0 58 25" fill="none" xmlns="http://www.w3.org/2000/svg">
<ellipse cx="20.4884" cy="19.4042" rx="4.13485" ry="4.99214" fill="black"/>
<ellipse cx="7.87704" cy="18.5888" rx="4.13485" ry="4.99214" fill="black"/>
<path d="M17.4182 21.0466H54.1925C54.1925 21.0466 56.26 21.1236 57.1562 18.4664C58.0524 15.8091 58.4874 13.7259 57.1562 11.0509C56.4921 9.71629 55.022 10.1951 52.0825 8.58277C49.143 6.97041 45.6357 5.36947 43.339 3.9841C41.0423 2.59873 23.8129 2.9331 21.8997 3.43842C19.9866 3.94375 12.8473 8.9742 12.8473 8.9742C12.8473 8.9742 2.39358 12.6176 1.26373 13.961C-1.33357 17.0492 1.26373 20.4101 1.26373 20.4101L17.4182 21.0466Z" fill="#FFA500"/>
<path fill-rule="evenodd" clip-rule="evenodd" d="M39.9519 13.5635C40.1059 13.5635 40.2323 13.5176 40.3313 13.4258C40.4303 13.334 40.4798 13.2182 40.4798 13.0783C40.4798 12.9384 40.4303 12.8237 40.3313 12.734C40.2323 12.6444 40.1059 12.5996 39.9519 12.5996C39.7979 12.5996 39.6714 12.6444 39.5724 12.734C39.4734 12.8237 39.4239 12.9384 39.4239 13.0783C39.4239 13.2182 39.4734 13.334 39.5724 13.4258C39.6714 13.5176 39.7979 13.5635 39.9519 13.5635ZM30.5875 13.4062V17.3209H29.7427V13.4062H28.3965V12.7308H31.9403V13.4062H30.5875ZM33.7848 17.2291C33.611 17.3428 33.3878 17.3996 33.115 17.3996C32.8334 17.3996 32.6024 17.3548 32.4221 17.2652C32.2417 17.1756 32.1075 17.0564 32.0195 16.9078C31.9315 16.7592 31.8875 16.5952 31.8875 16.416C31.8875 16.1144 32.0063 15.8696 32.2439 15.6816C32.4815 15.4936 32.8378 15.3996 33.313 15.3996H34.1445V15.3209C34.1445 15.098 34.0807 14.934 33.9531 14.8291C33.8255 14.7242 33.6671 14.6717 33.478 14.6717C33.3064 14.6717 33.1568 14.7122 33.0292 14.7931C32.9016 14.8739 32.8224 14.9931 32.7916 15.1504H31.9667C31.9887 14.9144 32.069 14.7089 32.2076 14.534C32.3462 14.3592 32.5255 14.2247 32.7454 14.1308C32.9654 14.0368 33.2118 13.9898 33.4845 13.9898C33.9509 13.9898 34.3183 14.1056 34.5866 14.3373C34.855 14.569 34.9892 14.8969 34.9892 15.3209V17.3209H34.2699L34.1907 16.7963C34.0939 16.9712 33.9586 17.1155 33.7848 17.2291ZM33.3064 16.7439C33.148 16.7439 33.0204 16.7089 32.9236 16.639C32.8268 16.569 32.7784 16.4706 32.7784 16.3439C32.7784 16.2258 32.8268 16.1264 32.9236 16.0455C33.0204 15.9646 33.181 15.9242 33.4054 15.9242H34.1247C34.0895 16.1559 34.0048 16.3504 33.8706 16.5078C33.7364 16.6652 33.5483 16.7439 33.3064 16.7439ZM38.9554 17.3209H38.0447L37.2198 16.1668L36.3882 17.3209H35.4841L36.672 15.6947L35.4841 14.0685H36.3882L37.2198 15.2226L38.0447 14.0685H38.9554L37.7609 15.6947L38.9554 17.3209ZM39.5295 14.0685H40.3742V17.3209H39.5295V14.0685Z" fill="black"/>
<path d="M28.5357 0.747406C28.6506 0.30716 29.0483 0 29.5033 0H34.1573C34.5688 0 34.9384 0.252147 35.0884 0.63537L36.2493 3.6H33.8998H27.791L28.5357 0.747406Z" fill="#FFA500"/>
<g style="mix-blend-mode:soft-light" opacity="0.6">
<path d="M28.5357 0.747406C28.6506 0.30716 29.0483 0 29.5033 0H34.8396L33.8998 3.6H27.791L28.5357 0.747406Z" fill="white"/>
</g>
<ellipse cx="46.9513" cy="18.997" rx="4.13485" ry="4.99214" fill="black"/>
<ellipse cx="21.7286" cy="19.6074" rx="4.13485" ry="4.99214" fill="black"/>
<ellipse cx="47.0556" cy="18.8943" rx="2.1708" ry="3.05641" fill="white" fill-opacity="0.8"/>
<ellipse cx="47.0551" cy="18.8947" rx="1.13708" ry="1.63009" fill="white"/>
<ellipse cx="22.454" cy="19.7097" rx="2.1708" ry="3.05641" fill="white" fill-opacity="0.8"/>
<ellipse cx="22.4535" cy="19.7102" rx="1.13708" ry="1.63009" fill="white"/>
<path fill-rule="evenodd" clip-rule="evenodd" d="M42.7648 4.75486C40.9335 3.71283 32.5221 4.33491 27.0302 4.26278C21.5383 4.19065 20.1023 4.26095 20.1023 4.26095L12.8965 8.94194L27.3463 9.65062L46.775 9.6437C46.775 9.6437 48.5687 9.63432 47.5341 8.33963C46.4996 7.04493 44.5961 5.7969 42.7648 4.75486Z" fill="black"/>
<g style="mix-blend-mode:soft-light" opacity="0.6">
<path d="M28.4656 9.24636C28.4656 9.24636 17.8572 12.7307 16.7834 14.5621C15.7095 16.3935 16.0424 20.9239 16.0424 20.9239L1.39841 20.4667C1.39841 20.4667 0 18.9181 0 17.1515C0 15.3849 1.24914 13.6773 1.24914 13.6773L12.9123 8.93848C12.9123 8.93848 14.0539 9.05299 16.5417 9.24656C19.0294 9.44014 28.4656 9.24636 28.4656 9.24636Z" fill="white"/>
</g>
<path fill-rule="evenodd" clip-rule="evenodd" d="M1.61693 14.3342C0.876308 14.6257 1.57994 16.4788 1.57994 16.4788L3.87871 16.5173L5.16502 14.9945L10.8207 15.0893L11.5898 16.6465L15.2163 16.7073C15.2163 16.7073 16.5079 14.7315 16.2595 14.5795C16.011 14.4276 2.35756 14.0427 1.61693 14.3342Z" fill="black"/>
<path d="M27.4312 9.64349L30.3084 4.26074L20.1235 4.27032L12.8809 8.96497L27.4312 9.64349Z" fill="white" fill-opacity="0.2"/>
</svg>
