<svg width="10" height="4" viewBox="0 0 10 4" fill="none" xmlns="http://www.w3.org/2000/svg">
<path d="M0.585255 0.585255C2.05684 2.05684 5.88295 4.11705 9.41474 0.585255" stroke="#346A48" stroke-width="1.5"/>
</svg>
