<svg width="19" height="24" viewBox="0 0 19 24" fill="none" xmlns="http://www.w3.org/2000/svg">
<path fill-rule="evenodd" clip-rule="evenodd" d="M16.472 22.3299C17.138 22.8313 18.0905 22.3562 18.0905 21.5225V1.92064C18.0905 1.36248 17.638 0.909995 17.0799 0.909995L1.92014 0.90998C1.36197 0.909979 0.909485 1.36246 0.909485 1.92063V21.5225C0.909485 22.3562 1.86203 22.8313 2.52804 22.3299L8.89209 17.5381C9.25205 17.2671 9.74795 17.2671 10.1079 17.5381L16.472 22.3299Z" stroke="#16162E" stroke-opacity="0.4" stroke-width="1.8" stroke-linecap="square"/>
</svg>
