<svg width="30" height="22" viewBox="0 0 30 22" fill="none" xmlns="http://www.w3.org/2000/svg">
<path d="M27.5855 21.7313H2.41447C1.081 21.7313 0 20.6503 0 19.3168V2.41545C0 1.08197 1.081 0.000976562 2.41447 0.000976562H27.5855C28.919 0.000976562 30 1.08197 30 2.41545V19.3169C30 20.6503 28.919 21.7313 27.5855 21.7313Z" fill="#7CAAE0"/>
<path d="M2.41447 21.7304H15.0361C9.87393 21.7304 5.6891 17.5457 5.6891 12.3834V0H2.41447C1.081 0 0 1.081 0 2.41453V19.316C0 20.6494 1.081 21.7304 2.41447 21.7304Z" fill="#779ECC"/>
<path d="M27.5861 16.901V4.82853C26.2526 4.82853 25.1716 3.74754 25.1716 2.41406H4.82951C4.82951 3.74754 3.74852 4.82853 2.41504 4.82853V16.901C3.74852 16.901 4.82951 17.982 4.82951 19.3154H25.1716C25.1716 17.982 26.2526 16.901 27.5861 16.901Z" fill="#6A91BF"/>
<path d="M4.82951 19.3154H8.76736C6.87725 17.6051 5.68967 15.1328 5.68967 12.3829V2.41406H4.82951C4.82951 3.74754 3.74852 4.82853 2.41504 4.82853V16.901C3.74852 16.901 4.82951 17.982 4.82951 19.3154Z" fill="#6087B6"/>
<path d="M15.0001 16.9015C18.3338 16.9015 21.0363 14.199 21.0363 10.8653C21.0363 7.53161 18.3338 4.8291 15.0001 4.8291C11.6664 4.8291 8.96387 7.53161 8.96387 10.8653C8.96387 14.199 11.6664 16.9015 15.0001 16.9015Z" fill="#7CAAE0"/>
<path d="M16.9165 11.4622C17.1592 11.4622 17.3559 11.2655 17.3559 11.0228C17.3559 10.7801 17.1592 10.5833 16.9165 10.5833H15.6465L17.2869 8.10468C17.4208 7.9023 17.3654 7.62966 17.163 7.49566C16.9606 7.36171 16.6879 7.4172 16.554 7.61958L15.0076 9.95601L13.4462 7.6037C13.312 7.4015 13.0393 7.34636 12.8371 7.4806C12.6349 7.61484 12.5798 7.88753 12.714 8.08974L14.3691 10.5831H13.0841C12.8414 10.5831 12.6446 10.7799 12.6446 11.0226C12.6446 11.2653 12.8414 11.462 13.0841 11.462H14.5668L14.5646 12.394H13.0841C12.8414 12.394 12.6446 12.5907 12.6446 12.8334C12.6446 13.0761 12.8414 13.2729 13.0841 13.2729H14.5626L14.5612 13.8819C14.5606 14.1246 14.757 14.3218 14.9997 14.3224H15.0007C15.243 14.3224 15.4396 14.1263 15.4401 13.8839L15.4415 13.2729H16.9165C17.1593 13.2729 17.356 13.0761 17.356 12.8334C17.356 12.5907 17.1593 12.394 16.9165 12.394H15.4435L15.4457 11.462H16.9165V11.4622Z" fill="white"/>
<path d="M25.519 10.3984H23.1045C22.8617 10.3984 22.665 10.2017 22.665 9.95898C22.665 9.71629 22.8617 9.51953 23.1045 9.51953H25.519C25.7617 9.51953 25.9584 9.71629 25.9584 9.95898C25.9584 10.2017 25.7617 10.3984 25.519 10.3984Z" fill="#7CAAE0"/>
<path d="M25.519 12.209H23.1045C22.8617 12.209 22.665 12.0122 22.665 11.7695C22.665 11.5268 22.8617 11.3301 23.1045 11.3301H25.519C25.7617 11.3301 25.9584 11.5268 25.9584 11.7695C25.9584 12.0122 25.7617 12.209 25.519 12.209Z" fill="#7CAAE0"/>
<path d="M6.89689 10.3984H4.48242C4.23973 10.3984 4.04297 10.2017 4.04297 9.95898C4.04297 9.71629 4.23973 9.51953 4.48242 9.51953H6.89695C7.13965 9.51953 7.33641 9.71629 7.33641 9.95898C7.33641 10.2017 7.13959 10.3984 6.89689 10.3984Z" fill="#7CAAE0"/>
<path d="M6.89689 12.209H4.48242C4.23973 12.209 4.04297 12.0122 4.04297 11.7695C4.04297 11.5268 4.23973 11.3301 4.48242 11.3301H6.89695C7.13965 11.3301 7.33641 11.5268 7.33641 11.7695C7.33641 12.0122 7.13959 12.209 6.89689 12.209Z" fill="#7CAAE0"/>
</svg>
