<svg width="374" height="214" viewBox="0 0 374 214" fill="none" xmlns="http://www.w3.org/2000/svg">
<path d="M357.739 0H16.2609C7.28024 0 0 6.5624 0 14.6575V199.342C0 207.438 7.28024 214 16.2609 214H357.739C366.72 214 374 207.438 374 199.342V14.6575C374 6.5624 366.72 0 357.739 0Z" fill="#16162E"/>
<mask id="mask0_398_13084" style="mask-type:alpha" maskUnits="userSpaceOnUse" x="0" y="0" width="374" height="214">
<path d="M357.739 0H16.2609C7.28024 0 0 6.5624 0 14.6575V199.342C0 207.438 7.28024 214 16.2609 214H357.739C366.72 214 374 207.438 374 199.342V14.6575C374 6.5624 366.72 0 357.739 0Z" fill="#294566"/>
</mask>
<g mask="url(#mask0_398_13084)">
<path d="M30.5106 332.206C22.4902 332.207 14.4901 331.405 6.63148 329.811C-8.52436 326.722 -22.9207 320.695 -35.736 312.072C-54.7856 299.278 -69.6971 281.261 -78.6637 260.205C-81.6932 253.074 -84.0058 245.662 -85.5674 238.077C-88.777 222.399 -88.777 206.238 -85.5674 190.56C-82.4634 175.481 -76.4055 161.158 -67.7395 148.407C-54.8799 129.454 -36.7719 114.618 -15.6096 105.697C-8.44192 102.682 -0.991898 100.381 6.63148 98.8278C22.3889 95.6342 38.6317 95.6342 54.3892 98.8278C69.5448 101.916 83.941 107.944 96.7561 116.566C115.806 129.36 130.718 147.377 139.684 168.433C142.714 175.564 145.027 182.976 146.588 190.561C149.798 206.239 149.798 222.399 146.588 238.077C143.484 253.157 137.426 267.48 128.76 280.231C115.9 299.184 97.7922 314.02 76.6298 322.942C69.4622 325.956 62.0124 328.257 54.3892 329.811C46.5307 331.405 38.5308 332.207 30.5106 332.206ZM30.9873 173.768C22.8321 173.768 14.8599 176.174 8.07898 180.682C1.29809 185.19 -3.98693 191.597 -7.10786 199.093C-10.2288 206.59 -11.0454 214.839 -9.45439 222.797C-7.8634 230.755 -3.93633 238.065 1.83031 243.803C7.59695 249.54 14.9441 253.448 22.9427 255.031C30.9412 256.614 39.232 255.801 46.7664 252.696C54.3009 249.591 60.7407 244.332 65.2715 237.586C69.8022 230.839 72.2206 222.907 72.2205 214.793C72.208 203.916 67.8597 193.489 60.1297 185.798C52.3997 178.107 41.9192 173.781 30.9873 173.768Z" fill="#346A48"/>
<path d="M381.719 166.081L122.072 -91.9043H380.35V162.669L381.719 166.081Z" fill="#346A48"/>
</g>
</svg>
